97b1ae87-7806-460d-be2c-376e59512776
[31mInitialization[0m
[94m--------------------------------------------------------------------------------------------------------------------------------------------------------------------------------------------------------------[0m
 Step |   Time |      Value |   four_hour_prob |   hour_prob |     kNN_k |        nx |        ny |   threshold |   w_accuracy |    w_hour |   w_month |   w_weekday |       w_x |    w_year |   weekday_prob | 
    1 | 13m52s | [35m   0.56951[0m | [32m          0.1000[0m | [32m     0.1000[0m | [32m  36.0000[0m | [32m  20.0000[0m | [32m  40.0000[0m | [32m     8.0000[0m | [32m     10.0000[0m | [32m   4.0000[0m | [32m   2.1000[0m | [32m     3.1000[0m | [32m 490.0000[0m | [32m  10.0000[0m | [32m        0.4000[0m | 
    2 | 16m05s |    0.54864 |           0.0513 |      0.2280 |   27.9444 |   17.4748 |   13.6078 |      5.7463 |       9.0408 |    1.2315 |    2.3435 |      9.6855 |  978.7884 |    4.7636 |         0.4577 | 
    3 | 17m09s |    0.55331 |           0.2243 |      0.0067 |   23.6035 |   28.3392 |   37.4666 |      7.7249 |       6.9274 |    1.7296 |    7.1205 |      8.6529 |  592.5216 |    7.4954 |         0.4670 | 
